fpga/Xilinx/Cmod_A7/Max7219-fb/build/PC101137/run/pattern_conwaylife.vcd
$date
	Mon Jan 12 22:10:46 2026
$end
$version
	Icarus Verilog
$end
$timescale
	1ps
$end
$scope module pattern_conwaylife_tb $end
$var wire 128 ! w_MAX7219_DataStream [127:0] $end
$var parameter 32 " CLK_FREQ_HZ $end
$var parameter 32 # DISP_COLUMNS $end
$var parameter 32 $ DISP_ROWS $end
$var reg 1 % r_Clk $end
$var reg 1 & r_Rst $end
$scope module pattern_conwaylife_0 $end
$var wire 1 % i_Clk $end
$var wire 1 & i_Rst $end
$var wire 32 ' w_REG_ROW [31:0] $end
$var wire 1 ( w_Random_Done $end
$var wire 9 ) w_Random_Data [8:0] $end
$var wire 128 * o_MAX7219_DataStream [127:0] $end
$var wire 3 + current_y [2:0] $end
$var wire 3 , current_x [2:0] $end
$var parameter 32 - CLK_FREQ_HZ $end
$var parameter 32 . DELAY_LIMIT $end
$var parameter 32 / DISP_COLUMNS $end
$var parameter 32 0 DISP_ROWS $end
$var parameter 64 1 FB_HEIGHT $end
$var parameter 64 2 FB_WIDTH $end
$var parameter 32 3 STATE_DELAY $end
$var parameter 32 4 STATE_IDLE $end
$var parameter 32 5 STATE_INITIALIZED $end
$var parameter 32 6 STATE_SET_RANDOM_PATTERN $end
$var parameter 32 7 STATE_UPDATE $end
$var reg 1 8 r_Enable $end
$var reg 3 9 r_State [2:0] $end
$var reg 3 : r_State_Next [2:0] $end
$var integer 32 ; delay_clocks [31:0] $end
$var integer 32 < num_pixels_updated [31:0] $end
$scope begin STREAM_GEN[0] $end
$var parameter 2 = s $end
$scope begin ROW_GEN[0] $end
$var parameter 2 > r $end
$scope begin COL_GEN[0] $end
$var parameter 2 ? c $end
$upscope $end
$upscope $end
$upscope $end
$scope begin STREAM_GEN[1] $end
$var parameter 2 @ s $end
$scope begin ROW_GEN[0] $end
$var parameter 2 A r $end
$scope begin COL_GEN[0] $end
$var parameter 2 B c $end
$upscope $end
$upscope $end
$upscope $end
$scope begin STREAM_GEN[2] $end
$var parameter 3 C s $end
$scope begin ROW_GEN[0] $end
$var parameter 2 D r $end
$scope begin COL_GEN[0] $end
$var parameter 2 E c $end
$upscope $end
$upscope $end
$upscope $end
$scope begin STREAM_GEN[3] $end
$var parameter 3 F s $end
$scope begin ROW_GEN[0] $end
$var parameter 2 G r $end
$scope begin COL_GEN[0] $end
$var parameter 2 H c $end
$upscope $end
$upscope $end
$upscope $end
$scope begin STREAM_GEN[4] $end
$var parameter 4 I s $end
$scope begin ROW_GEN[0] $end
$var parameter 2 J r $end
$scope begin COL_GEN[0] $end
$var parameter 2 K c $end
$upscope $end
$upscope $end
$upscope $end
$scope begin STREAM_GEN[5] $end
$var parameter 4 L s $end
$scope begin ROW_GEN[0] $end
$var parameter 2 M r $end
$scope begin COL_GEN[0] $end
$var parameter 2 N c $end
$upscope $end
$upscope $end
$upscope $end
$scope begin STREAM_GEN[6] $end
$var parameter 4 O s $end
$scope begin ROW_GEN[0] $end
$var parameter 2 P r $end
$scope begin COL_GEN[0] $end
$var parameter 2 Q c $end
$upscope $end
$upscope $end
$upscope $end
$scope begin STREAM_GEN[7] $end
$var parameter 4 R s $end
$scope begin ROW_GEN[0] $end
$var parameter 2 S r $end
$scope begin COL_GEN[0] $end
$var parameter 2 T c $end
$upscope $end
$upscope $end
$upscope $end
$scope begin SUM_ROW_GEN[0] $end
$var parameter 2 U y $end
$scope begin SUM_COL_GEN[0] $end
$var parameter 2 V x $end
$upscope $end
$scope begin SUM_COL_GEN[1] $end
$var parameter 2 W x $end
$upscope $end
$scope begin SUM_COL_GEN[2] $end
$var parameter 3 X x $end
$upscope $end
$scope begin SUM_COL_GEN[3] $end
$var parameter 3 Y x $end
$upscope $end
$scope begin SUM_COL_GEN[4] $end
$var parameter 4 Z x $end
$upscope $end
$scope begin SUM_COL_GEN[5] $end
$var parameter 4 [ x $end
$upscope $end
$scope begin SUM_COL_GEN[6] $end
$var parameter 4 \ x $end
$upscope $end
$scope begin SUM_COL_GEN[7] $end
$var parameter 4 ] x $end
$upscope $end
$upscope $end
$scope begin SUM_ROW_GEN[1] $end
$var parameter 2 ^ y $end
$scope begin SUM_COL_GEN[0] $end
$var parameter 2 _ x $end
$upscope $end
$scope begin SUM_COL_GEN[1] $end
$var parameter 2 ` x $end
$upscope $end
$scope begin SUM_COL_GEN[2] $end
$var parameter 3 a x $end
$upscope $end
$scope begin SUM_COL_GEN[3] $end
$var parameter 3 b x $end
$upscope $end
$scope begin SUM_COL_GEN[4] $end
$var parameter 4 c x $end
$upscope $end
$scope begin SUM_COL_GEN[5] $end
$var parameter 4 d x $end
$upscope $end
$scope begin SUM_COL_GEN[6] $end
$var parameter 4 e x $end
$upscope $end
$scope begin SUM_COL_GEN[7] $end
$var parameter 4 f x $end
$upscope $end
$upscope $end
$scope begin SUM_ROW_GEN[2] $end
$var parameter 3 g y $end
$scope begin SUM_COL_GEN[0] $end
$var parameter 2 h x $end
$upscope $end
$scope begin SUM_COL_GEN[1] $end
$var parameter 2 i x $end
$upscope $end
$scope begin SUM_COL_GEN[2] $end
$var parameter 3 j x $end
$upscope $end
$scope begin SUM_COL_GEN[3] $end
$var parameter 3 k x $end
$upscope $end
$scope begin SUM_COL_GEN[4] $end
$var parameter 4 l x $end
$upscope $end
$scope begin SUM_COL_GEN[5] $end
$var parameter 4 m x $end
$upscope $end
$scope begin SUM_COL_GEN[6] $end
$var parameter 4 n x $end
$upscope $end
$scope begin SUM_COL_GEN[7] $end
$var parameter 4 o x $end
$upscope $end
$upscope $end
$scope begin SUM_ROW_GEN[3] $end
$var parameter 3 p y $end
$scope begin SUM_COL_GEN[0] $end
$var parameter 2 q x $end
$upscope $end
$scope begin SUM_COL_GEN[1] $end
$var parameter 2 r x $end
$upscope $end
$scope begin SUM_COL_GEN[2] $end
$var parameter 3 s x $end
$upscope $end
$scope begin SUM_COL_GEN[3] $end
$var parameter 3 t x $end
$upscope $end
$scope begin SUM_COL_GEN[4] $end
$var parameter 4 u x $end
$upscope $end
$scope begin SUM_COL_GEN[5] $end
$var parameter 4 v x $end
$upscope $end
$scope begin SUM_COL_GEN[6] $end
$var parameter 4 w x $end
$upscope $end
$scope begin SUM_COL_GEN[7] $end
$var parameter 4 x x $end
$upscope $end
$upscope $end
$scope begin SUM_ROW_GEN[4] $end
$var parameter 4 y y $end
$scope begin SUM_COL_GEN[0] $end
$var parameter 2 z x $end
$upscope $end
$scope begin SUM_COL_GEN[1] $end
$var parameter 2 { x $end
$upscope $end
$scope begin SUM_COL_GEN[2] $end
$var parameter 3 | x $end
$upscope $end
$scope begin SUM_COL_GEN[3] $end
$var parameter 3 } x $end
$upscope $end
$scope begin SUM_COL_GEN[4] $end
$var parameter 4 ~ x $end
$upscope $end
$scope begin SUM_COL_GEN[5] $end
$var parameter 4 !" x $end
$upscope $end
$scope begin SUM_COL_GEN[6] $end
$var parameter 4 "" x $end
$upscope $end
$scope begin SUM_COL_GEN[7] $end
$var parameter 4 #" x $end
$upscope $end
$upscope $end
$scope begin SUM_ROW_GEN[5] $end
$var parameter 4 $" y $end
$scope begin SUM_COL_GEN[0] $end
$var parameter 2 %" x $end
$upscope $end
$scope begin SUM_COL_GEN[1] $end
$var parameter 2 &" x $end
$upscope $end
$scope begin SUM_COL_GEN[2] $end
$var parameter 3 '" x $end
$upscope $end
$scope begin SUM_COL_GEN[3] $end
$var parameter 3 (" x $end
$upscope $end
$scope begin SUM_COL_GEN[4] $end
$var parameter 4 )" x $end
$upscope $end
$scope begin SUM_COL_GEN[5] $end
$var parameter 4 *" x $end
$upscope $end
$scope begin SUM_COL_GEN[6] $end
$var parameter 4 +" x $end
$upscope $end
$scope begin SUM_COL_GEN[7] $end
$var parameter 4 ," x $end
$upscope $end
$upscope $end
$scope begin SUM_ROW_GEN[6] $end
$var parameter 4 -" y $end
$scope begin SUM_COL_GEN[0] $end
$var parameter 2 ." x $end
$upscope $end
$scope begin SUM_COL_GEN[1] $end
$var parameter 2 /" x $end
$upscope $end
$scope begin SUM_COL_GEN[2] $end
$var parameter 3 0" x $end
$upscope $end
$scope begin SUM_COL_GEN[3] $end
$var parameter 3 1" x $end
$upscope $end
$scope begin SUM_COL_GEN[4] $end
$var parameter 4 2" x $end
$upscope $end
$scope begin SUM_COL_GEN[5] $end
$var parameter 4 3" x $end
$upscope $end
$scope begin SUM_COL_GEN[6] $end
$var parameter 4 4" x $end
$upscope $end
$scope begin SUM_COL_GEN[7] $end
$var parameter 4 5" x $end
$upscope $end
$upscope $end
$scope begin SUM_ROW_GEN[7] $end
$var parameter 4 6" y $end
$scope begin SUM_COL_GEN[0] $end
$var parameter 2 7" x $end
$upscope $end
$scope begin SUM_COL_GEN[1] $end
$var parameter 2 8" x $end
$upscope $end
$scope begin SUM_COL_GEN[2] $end
$var parameter 3 9" x $end
$upscope $end
$scope begin SUM_COL_GEN[3] $end
$var parameter 3 :" x $end
$upscope $end
$scope begin SUM_COL_GEN[4] $end
$var parameter 4 ;" x $end
$upscope $end
$scope begin SUM_COL_GEN[5] $end
$var parameter 4 <" x $end
$upscope $end
$scope begin SUM_COL_GEN[6] $end
$var parameter 4 =" x $end
$upscope $end
$scope begin SUM_COL_GEN[7] $end
$var parameter 4 >" x $end
$upscope $end
$upscope $end
$scope module rand_0 $end
$var wire 1 % i_Clk $end
$var wire 1 8 i_Enable $end
$var wire 1 ( o_Random_Done $end
$var wire 9 ?" o_Random_Data [8:0] $end
$var parameter 34 @" NUM_BITS $end
$var parameter 1 A" STATE_IDLE $end
$var parameter 1 B" STATE_SEED_LOADED $end
$var reg 1 C" r_Seed_DV $end
$var reg 9 D" r_Seed_Data [8:0] $end
$var reg 1 E" r_State $end
$scope module lfsr_0 $end
$var wire 1 % i_Clk $end
$var wire 1 8 i_Enable $end
$var wire 1 C" i_Seed_DV $end
$var wire 9 F" i_Seed_Data [8:0] $end
$var wire 9 G" o_LFSR_Data [8:0] $end
$var wire 1 ( o_LFSR_Done $end
$var parameter 34 H" NUM_BITS $end
$var reg 9 I" r_LFSR [9:1] $end
$var reg 1 J" r_XNOR $end
$upscope $end
$upscope $end
$scope task clear_fb $end
$var integer 32 K" x [31:0] $end
$var integer 32 L" y [31:0] $end
$upscope $end
$scope task update_fb $end
$var integer 32 M" x [31:0] $end
$var integer 32 N" y [31:0] $end
$upscope $end
$upscope $end
$upscope $end
$enddefinitions $end
$comment Show the parameter values. $end
$dumpall
b1001 H"
1B"
0A"
b1001 @"
b111 >"
b110 ="
b101 <"
b100 ;"
b11 :"
b10 9"
b1 8"
b0 7"
b111 6"
b111 5"
b110 4"
b101 3"
b100 2"
b11 1"
b10 0"
b1 /"
b0 ."
b110 -"
b111 ,"
b110 +"
b101 *"
b100 )"
b11 ("
b10 '"
b1 &"
b0 %"
b101 $"
b111 #"
b110 ""
b101 !"
b100 ~
b11 }
b10 |
b1 {
b0 z
b100 y
b111 x
b110 w
b101 v
b100 u
b11 t
b10 s
b1 r
b0 q
b11 p
b111 o
b110 n
b101 m
b100 l
b11 k
b10 j
b1 i
b0 h
b10 g
b111 f
b110 e
b101 d
b100 c
b11 b
b10 a
b1 `
b0 _
b1 ^
b111 ]
b110 \
b101 [
b100 Z
b11 Y
b10 X
b1 W
b0 V
b0 U
b0 T
b0 S
b111 R
b0 Q
b0 P
b110 O
b0 N
b0 M
b101 L
b0 K
b0 J
b100 I
b0 H
b0 G
b11 F
b0 E
b0 D
b10 C
b0 B
b0 A
b1 @
b0 ?
b0 >
b0 =
b11 7
b10 6
b1 5
b0 4
b100 3
b1000 2
b1000 1
b1 0
b1 /
b0 .
b1000 -
b1 $
b1 #
b1000 "
$end
#0
$dumpvars
bx N"
bx M"
bx L"
bx K"
0J"
b0 I"
b0 G"
b100000000 F"
0E"
b100000000 D"
xC"
b0 ?"
b0 <
b0 ;
b1 :
b0 9
08
b0 ,
b0 +
b1xxxxxxxx00000010xxxxxxxx00000011xxxxxxxx00000100xxxxxxxx00000101xxxxxxxx00000110xxxxxxxx00000111xxxxxxxx00001000xxxxxxxx *
b0 )
0(
b10010001101000101011001111000 '
0&
0%
b1xxxxxxxx00000010xxxxxxxx00000011xxxxxxxx00000100xxxxxxxx00000101xxxxxxxx00000110xxxxxxxx00000111xxxxxxxx00001000xxxxxxxx !
$end
#1000
1%
#2000
b10 :
b1 9
0%
#3000
1%
#4000
b1000000000000001000000000000000110000000000000100000000000000010100000000000001100000000000000111000000000000100000000000 !
b1000000000000001000000000000000110000000000000100000000000000010100000000000001100000000000000111000000000000100000000000 *
b10 9
18
b1000 K"
b1000 L"
0%
#5000
1%
#6000
1E"
1C"
b1 <
b1000000010000001000000000000000110000000000000100000000000000010100000000000001100000000000000111000000000000100000000000 !
b1000000010000001000000000000000110000000000000100000000000000010100000000000001100000000000000111000000000000100000000000 *
0%
#7000
1(
b100000000 )
b100000000 ?"
b100000000 G"
b100000000 I"
1%
#8000
0C"
b10 <
b1000000000000001000000000000000110000000000000100000000000000010100000000000001100000000000000111000000000000100000000000 !
b1000000000000001000000000000000110000000000000100000000000000010100000000000001100000000000000111000000000000100000000000 *
0%
#9000
1J"
0(
b0 )
b0 ?"
b0 G"
b0 I"
1%
#10000
b11 <
b1000000010000001000000000000000110000000000000100000000000000010100000000000001100000000000000111000000000000100000000000 !
b1000000010000001000000000000000110000000000000100000000000000010100000000000001100000000000000111000000000000100000000000 *
0%
#11000
b1 ,
b1 )
b1 ?"
b1 G"
b1 I"
1%
#12000
b100 <
b1000000110000001000000000000000110000000000000100000000000000010100000000000001100000000000000111000000000000100000000000 !
b1000000110000001000000000000000110000000000000100000000000000010100000000000001100000000000000111000000000000100000000000 *
0%
#13000
b11 ,
b11 )
b11 ?"
b11 G"
b11 I"
1%
#14000
b101 <
b1000010110000001000000000000000110000000000000100000000000000010100000000000001100000000000000111000000000000100000000000 !
b1000010110000001000000000000000110000000000000100000000000000010100000000000001100000000000000111000000000000100000000000 *
0%
#15000
b111 ,
b111 )
b111 ?"
b111 G"
b111 I"
1%
#16000
b110 <
b1100010110000001000000000000000110000000000000100000000000000010100000000000001100000000000000111000000000000100000000000 !
b1100010110000001000000000000000110000000000000100000000000000010100000000000001100000000000000111000000000000100000000000 *
0%
#17000
b1 +
b1111 )
b1111 ?"
b1111 G"
b1111 I"
1%
#18000
b111 <
b1100010110000001010000000000000110000000000000100000000000000010100000000000001100000000000000111000000000000100000000000 !
b1100010110000001010000000000000110000000000000100000000000000010100000000000001100000000000000111000000000000100000000000 *
0%
#19000
0J"
b11 +
b11111 )
b11111 ?"
b11111 G"
b11111 I"
1%
#20000
b1000 <
b1100010110000001010000000000000110000000000000100100000000000010100000000000001100000000000000111000000000000100000000000 !
b1100010110000001010000000000000110000000000000100100000000000010100000000000001100000000000000111000000000000100000000000 *
0%
#21000
b110 ,
b111 +
b111110 )
b111110 ?"
b111110 G"
b111110 I"
1%
#22000
b1001 <
b1100010110000001010000000000000110000000000000100100000000000010100000000000001100000000000000111000000000000100001000000 !
b1100010110000001010000000000000110000000000000100100000000000010100000000000001100000000000000111000000000000100001000000 *
0%
#23000
b100 ,
b1111100 )
b1111100 ?"
b1111100 G"
b1111100 I"
1%
#24000
b1010 <
b1100010110000001010000000000000110000000000000100100000000000010100000000000001100000000000000111000000000000100001010000 !
b1100010110000001010000000000000110000000000000100100000000000010100000000000001100000000000000111000000000000100001010000 *
0%
#25000
b0 ,
b11111000 )
b11111000 ?"
b11111000 G"
b11111000 I"
1%
#26000
b1011 <
b1100010110000001010000000000000110000000000000100100000000000010100000000000001100000000000000111000000000000100001010001 !
b1100010110000001010000000000000110000000000000100100000000000010100000000000001100000000000000111000000000000100001010001 *
0%
#27000
1J"
b110 +
b111110000 )
b111110000 ?"
b111110000 G"
b111110000 I"
1%
#28000
b1100 <
b1100010110000001010000000000000110000000000000100100000000000010100000000000001100000000000000111000000010000100001010001 !
b1100010110000001010000000000000110000000000000100100000000000010100000000000001100000000000000111000000010000100001010001 *
0%
#29000
0J"
b1 ,
b100 +
b111100001 )
b111100001 ?"
b111100001 G"
b111100001 I"
1%
#30000
b1101 <
b1100010110000001010000000000000110000000000000100100000000000010100000010000001100000000000000111000000010000100001010001 !
b1100010110000001010000000000000110000000000000100100000000000010100000010000001100000000000000111000000010000100001010001 *
0%
#31000
b10 ,
b0 +
b111000010 )
b111000010 ?"
b111000010 G"
b111000010 I"
1%
#32000
b1110 <
b1100011110000001010000000000000110000000000000100100000000000010100000010000001100000000000000111000000010000100001010001 !
b1100011110000001010000000000000110000000000000100100000000000010100000010000001100000000000000111000000010000100001010001 *
0%
#33000
b100 ,
b110000100 )
b110000100 ?"
b110000100 G"
b110000100 I"
1%
#34000
b1111 <
b1100111110000001010000000000000110000000000000100100000000000010100000010000001100000000000000111000000010000100001010001 !
b1100111110000001010000000000000110000000000000100100000000000010100000010000001100000000000000111000000010000100001010001 *
0%
#35000
b0 ,
b1 +
b100001000 )
b100001000 ?"
b100001000 G"
b100001000 I"
1%
#36000
b10000 <
b1100111110000001010000001000000110000000000000100100000000000010100000010000001100000000000000111000000010000100001010001 !
b1100111110000001010000001000000110000000000000100100000000000010100000010000001100000000000000111000000010000100001010001 *
0%
#37000
b10 +
b10000 )
b10000 ?"
b10000 G"
b10000 I"
1%
#38000
b10001 <
b1100111110000001010000001000000110000000100000100100000000000010100000010000001100000000000000111000000010000100001010001 !
b1100111110000001010000001000000110000000100000100100000000000010100000010000001100000000000000111000000010000100001010001 *
0%
#39000
1J"
b100 +
b100000 )
b100000 ?"
b100000 G"
b100000 I"
1%
#40000
b10010 <
b1100111110000001010000001000000110000000100000100100000000000010100000011000001100000000000000111000000010000100001010001 !
b1100111110000001010000001000000110000000100000100100000000000010100000011000001100000000000000111000000010000100001010001 *
0%
#41000
b1 ,
b0 +
b1000001 )
b1000001 ?"
b1000001 G"
b1000001 I"
1%
#42000
b10011 <
b1100111010000001010000001000000110000000100000100100000000000010100000011000001100000000000000111000000010000100001010001 !
b1100111010000001010000001000000110000000100000100100000000000010100000011000001100000000000000111000000010000100001010001 *
0%
#43000
b11 ,
b10000011 )
b10000011 ?"
b10000011 G"
b10000011 I"
1%
#44000
b10100 <
b1100101010000001010000001000000110000000100000100100000000000010100000011000001100000000000000111000000010000100001010001 !
b1100101010000001010000001000000110000000100000100100000000000010100000011000001100000000000000111000000010000100001010001 *
0%
#45000
0J"
b111 ,
b100000111 )
b100000111 ?"
b100000111 G"
b100000111 I"
1%
#46000
b10101 <
b1000101010000001010000001000000110000000100000100100000000000010100000011000001100000000000000111000000010000100001010001 !
b1000101010000001010000001000000110000000100000100100000000000010100000011000001100000000000000111000000010000100001010001 *
0%
#47000
1J"
b110 ,
b1 +
b1110 )
b1110 ?"
b1110 G"
b1110 I"
1%
#48000
b10110 <
b1000101010000001011000001000000110000000100000100100000000000010100000011000001100000000000000111000000010000100001010001 !
b1000101010000001011000001000000110000000100000100100000000000010100000011000001100000000000000111000000010000100001010001 *
0%
#49000
0J"
b101 ,
b11 +
b11101 )
b11101 ?"
b11101 G"
b11101 I"
1%
#50000
b10111 <
b1000101010000001011000001000000110000000100000100101000000000010100000011000001100000000000000111000000010000100001010001 !
b1000101010000001011000001000000110000000100000100101000000000010100000011000001100000000000000111000000010000100001010001 *
0%
#51000
b10 ,
b111 +
b111010 )
b111010 ?"
b111010 G"
b111010 I"
1%
#52000
b11000 <
b1000101010000001011000001000000110000000100000100101000000000010100000011000001100000000000000111000000010000100001010101 !
b1000101010000001011000001000000110000000100000100101000000000010100000011000001100000000000000111000000010000100001010101 *
0%
#53000
b100 ,
b110 +
b1110100 )
b1110100 ?"
b1110100 G"
b1110100 I"
1%
#54000
b11001 <
b1000101010000001011000001000000110000000100000100101000000000010100000011000001100000000000000111000100010000100001010101 !
b1000101010000001011000001000000110000000100000100101000000000010100000011000001100000000000000111000100010000100001010101 *
0%
#55000
1J"
b0 ,
b101 +
b11101000 )
b11101000 ?"
b11101000 G"
b11101000 I"
1%
#56000
b11010 <
b1000101010000001011000001000000110000000100000100101000000000010100000011000001100000000100000111000100010000100001010101 !
b1000101010000001011000001000000110000000100000100101000000000010100000011000001100000000100000111000100010000100001010101 *
0%
#57000
b1 ,
b10 +
b111010001 )
b111010001 ?"
b111010001 G"
b111010001 I"
1%
#58000
b11011 <
b1000101010000001011000001000000110000001100000100101000000000010100000011000001100000000100000111000100010000100001010101 !
b1000101010000001011000001000000110000001100000100101000000000010100000011000001100000000100000111000100010000100001010101 *
0%
#59000
0J"
b11 ,
b100 +
b110100011 )
b110100011 ?"
b110100011 G"
b110100011 I"
1%
#60000
b11100 <
b1000101010000001011000001000000110000001100000100101000000000010100001011000001100000000100000111000100010000100001010101 !
b1000101010000001011000001000000110000001100000100101000000000010100001011000001100000000100000111000100010000100001010101 *
0%
#61000
b110 ,
b0 +
b101000110 )
b101000110 ?"
b101000110 G"
b101000110 I"
1%
#62000
b11101 <
b1010101010000001011000001000000110000001100000100101000000000010100001011000001100000000100000111000100010000100001010101 !
b1010101010000001011000001000000110000001100000100101000000000010100001011000001100000000100000111000100010000100001010101 *
0%
#63000
1J"
b100 ,
b1 +
b10001100 )
b10001100 ?"
b10001100 G"
b10001100 I"
1%
#64000
b11110 <
b1010101010000001011010001000000110000001100000100101000000000010100001011000001100000000100000111000100010000100001010101 !
b1010101010000001011010001000000110000001100000100101000000000010100001011000001100000000100000111000100010000100001010101 *
0%
#65000
b1 ,
b11 +
b100011001 )
b100011001 ?"
b100011001 G"
b100011001 I"
1%
#66000
b11111 <
b1010101010000001011010001000000110000001100000100101000100000010100001011000001100000000100000111000100010000100001010101 !
b1010101010000001011010001000000110000001100000100101000100000010100001011000001100000000100000111000100010000100001010101 *
0%
#67000
0J"
b11 ,
b110 +
b110011 )
b110011 ?"
b110011 G"
b110011 I"
1%
#68000
b100000 <
b1010101010000001011010001000000110000001100000100101000100000010100001011000001100000000100000111000110010000100001010101 !
b1010101010000001011010001000000110000001100000100101000100000010100001011000001100000000100000111000110010000100001010101 *
0%
#69000
1J"
b110 ,
b100 +
b1100110 )
b1100110 ?"
b1100110 G"
b1100110 I"
1%
#70000
b100001 <
b1010101010000001011010001000000110000001100000100101000100000010101001011000001100000000100000111000110010000100001010101 !
b1010101010000001011010001000000110000001100000100101000100000010101001011000001100000000100000111000110010000100001010101 *
0%
#71000
b101 ,
b1 +
b11001101 )
b11001101 ?"
b11001101 G"
b11001101 I"
1%
#72000
b100010 <
b1010101010000001011110001000000110000001100000100101000100000010101001011000001100000000100000111000110010000100001010101 !
b1010101010000001011110001000000110000001100000100101000100000010101001011000001100000000100000111000110010000100001010101 *
0%
#73000
b11 ,
b11 +
b110011011 )
b110011011 ?"
b110011011 G"
b110011011 I"
1%
#74000
b100011 <
b1010101010000001011110001000000110000001100000100101010100000010101001011000001100000000100000111000110010000100001010101 !
b1010101010000001011110001000000110000001100000100101010100000010101001011000001100000000100000111000110010000100001010101 *
0%
#75000
b111 ,
b110 +
b100110111 )
b100110111 ?"
b100110111 G"
b100110111 I"
1%
#76000
b100100 <
b1010101010000001011110001000000110000001100000100101010100000010101001011000001100000000100000111100110010000100001010101 !
b1010101010000001011110001000000110000001100000100101010100000010101001011000001100000000100000111100110010000100001010101 *
0%
#77000
b101 +
b1101111 )
b1101111 ?"
b1101111 G"
b1101111 I"
1%
#78000
b100101 <
b1010101010000001011110001000000110000001100000100101010100000010101001011000001101000000100000111100110010000100001010101 !
b1010101010000001011110001000000110000001100000100101010100000010101001011000001101000000100000111100110010000100001010101 *
0%
#79000
0J"
b11 +
b11011111 )
b11011111 ?"
b11011111 G"
b11011111 I"
1%
#80000
b100110 <
b1010101010000001011110001000000110000001100000100001010100000010101001011000001101000000100000111100110010000100001010101 !
b1010101010000001011110001000000110000001100000100001010100000010101001011000001101000000100000111100110010000100001010101 *
0%
#81000
1J"
b110 ,
b111 +
b110111110 )
b110111110 ?"
b110111110 G"
b110111110 I"
1%
#82000
b100111 <
b1010101010000001011110001000000110000001100000100001010100000010101001011000001101000000100000111100110010000100000010101 !
b1010101010000001011110001000000110000001100000100001010100000010101001011000001101000000100000111100110010000100000010101 *
0%
#83000
b101 ,
b101111101 )
b101111101 ?"
b101111101 G"
b101111101 I"
1%
#84000
b101000 <
b1010101010000001011110001000000110000001100000100001010100000010101001011000001101000000100000111100110010000100000110101 !
b1010101010000001011110001000000110000001100000100001010100000010101001011000001101000000100000111100110010000100000110101 *
0%
#85000
0J"
b11 ,
b11111011 )
b11111011 ?"
b11111011 G"
b11111011 I"
1%
#86000
b101001 <
b1010101010000001011110001000000110000001100000100001010100000010101001011000001101000000100000111100110010000100000111101 !
b1010101010000001011110001000000110000001100000100001010100000010101001011000001101000000100000111100110010000100000111101 *
0%
#87000
1J"
b110 ,
b110 +
b111110110 )
b111110110 ?"
b111110110 G"
b111110110 I"
1%
#88000
b101010 <
b1010101010000001011110001000000110000001100000100001010100000010101001011000001101000000100000111110110010000100000111101 !
b1010101010000001011110001000000110000001100000100001010100000010101001011000001101000000100000111110110010000100000111101 *
0%
#89000
0J"
b101 ,
b101 +
b111101101 )
b111101101 ?"
b111101101 G"
b111101101 I"
1%
#90000
b101011 <
b1010101010000001011110001000000110000001100000100001010100000010101001011000001101010000100000111110110010000100000111101 !
b1010101010000001011110001000000110000001100000100001010100000010101001011000001101010000100000111110110010000100000111101 *
0%
#91000
1J"
b10 ,
b11 +
b111011010 )
b111011010 ?"
b111011010 G"
b111011010 I"
1%
#92000
b101100 <
b1010101010000001011110001000000110000001100000100001011100000010101001011000001101010000100000111110110010000100000111101 !
b1010101010000001011110001000000110000001100000100001011100000010101001011000001101010000100000111110110010000100000111101 *
0%
#93000
b101 ,
b110 +
b110110101 )
b110110101 ?"
b110110101 G"
b110110101 I"
1%
#94000
b101101 <
b1010101010000001011110001000000110000001100000100001011100000010101001011000001101010000100000111111110010000100000111101 !
b1010101010000001011110001000000110000001100000100001011100000010101001011000001101010000100000111111110010000100000111101 *
0%
#95000
0J"
b11 ,
b101 +
b101101011 )
b101101011 ?"
b101101011 G"
b101101011 I"
1%
#96000
b101110 <
b1010101010000001011110001000000110000001100000100001011100000010101001011000001101010100100000111111110010000100000111101 !
b1010101010000001011110001000000110000001100000100001011100000010101001011000001101010100100000111111110010000100000111101 *
0%
#97000
b110 ,
b10 +
b11010110 )
b11010110 ?"
b11010110 G"
b11010110 I"
1%
#98000
b101111 <
b1010101010000001011110001000000110100001100000100001011100000010101001011000001101010100100000111111110010000100000111101 !
b1010101010000001011110001000000110100001100000100001011100000010101001011000001101010100100000111111110010000100000111101 *
0%
#99000
b100 ,
b101 +
b110101100 )
b110101100 ?"
b110101100 G"
b110101100 I"
1%
#100000
b110000 <
b1010101010000001011110001000000110100001100000100001011100000010101001011000001101011100100000111111110010000100000111101 !
b1010101010000001011110001000000110100001100000100001011100000010101001011000001101011100100000111111110010000100000111101 *
0%
#101000
1J"
b0 ,
b11 +
b101011000 )
b101011000 ?"
b101011000 G"
b101011000 I"
1%
#102000
b110001 <
b1010101010000001011110001000000110100001100000100001011110000010101001011000001101011100100000111111110010000100000111101 !
b1010101010000001011110001000000110100001100000100001011110000010101001011000001101011100100000111111110010000100000111101 *
0%
#103000
0J"
b1 ,
b110 +
b10110001 )
b10110001 ?"
b10110001 G"
b10110001 I"
1%
#104000
b110010 <
b1010101010000001011110001000000110100001100000100001011110000010101001011000001101011100100000111111110110000100000111101 !
b1010101010000001011110001000000110100001100000100001011110000010101001011000001101011100100000111111110110000100000111101 *
0%
#105000
b10 ,
b100 +
b101100010 )
b101100010 ?"
b101100010 G"
b101100010 I"
1%
#106000
b110011 <
b1010101010000001011110001000000110100001100000100001011110000010101001111000001101011100100000111111110110000100000111101 !
b1010101010000001011110001000000110100001100000100001011110000010101001111000001101011100100000111111110110000100000111101 *
0%
#107000
1J"
b100 ,
b0 +
b11000100 )
b11000100 ?"
b11000100 G"
b11000100 I"
1%
#108000
b110100 <
b1010001010000001011110001000000110100001100000100001011110000010101001111000001101011100100000111111110110000100000111101 !
b1010001010000001011110001000000110100001100000100001011110000010101001111000001101011100100000111111110110000100000111101 *
0%
#109000
0J"
b1 ,
b1 +
b110001001 )
b110001001 ?"
b110001001 G"
b110001001 I"
1%
#110000
b110101 <
b1010001010000001011110011000000110100001100000100001011110000010101001111000001101011100100000111111110110000100000111101 !
b1010001010000001011110011000000110100001100000100001011110000010101001111000001101011100100000111111110110000100000111101 *
0%
#111000
1J"
b10 ,
b10 +
b100010010 )
b100010010 ?"
b100010010 G"
b100010010 I"
1%
#112000
b110110 <
b1010001010000001011110011000000110100011100000100001011110000010101001111000001101011100100000111111110110000100000111101 !
b1010001010000001011110011000000110100011100000100001011110000010101001111000001101011100100000111111110110000100000111101 *
0%
#113000
b101 ,
b100 +
b100101 )
b100101 ?"
b100101 G"
b100101 I"
1%
#114000
b110111 <
b1010001010000001011110011000000110100011100000100001011110000010101101111000001101011100100000111111110110000100000111101 !
b1010001010000001011110011000000110100011100000100001011110000010101101111000001101011100100000111111110110000100000111101 *
0%
#115000
b11 ,
b1 +
b1001011 )
b1001011 ?"
b1001011 G"
b1001011 I"
1%
#116000
b111000 <
b1010001010000001011111011000000110100011100000100001011110000010101101111000001101011100100000111111110110000100000111101 !
b1010001010000001011111011000000110100011100000100001011110000010101101111000001101011100100000111111110110000100000111101 *
0%
#117000
0J"
b111 ,
b10 +
b10010111 )
b10010111 ?"
b10010111 G"
b10010111 I"
1%
#118000
b111001 <
b1010001010000001011111011000000111100011100000100001011110000010101101111000001101011100100000111111110110000100000111101 !
b1010001010000001011111011000000111100011100000100001011110000010101101111000001101011100100000111111110110000100000111101 *
0%
