fpga/Xilinx/Cmod_A7/Max7219-fb/build/PC101137/run/pattern_random1.vcd
$date
	Mon Jan 12 22:06:25 2026
$end
$version
	Icarus Verilog
$end
$timescale
	1ps
$end
$scope module pattern_random1_tb $end
$var wire 128 ! w_MAX7219_DataStream [127:0] $end
$var parameter 32 " CLK_FREQ_HZ $end
$var parameter 32 # DISP_COLUMNS $end
$var parameter 32 $ DISP_ROWS $end
$var reg 1 % r_Clk $end
$var reg 1 & r_Rst $end
$scope module pattern_random1_0 $end
$var wire 1 % i_Clk $end
$var wire 1 & i_Rst $end
$var wire 32 ' w_REG_ROW [31:0] $end
$var wire 3 ( y [2:0] $end
$var wire 3 ) x [2:0] $end
$var wire 1 * w_Random_Done $end
$var wire 9 + w_Random_Data [8:0] $end
$var wire 128 , o_MAX7219_DataStream [127:0] $end
$var parameter 32 - CLK_FREQ_HZ $end
$var parameter 32 . DELAY_LIMIT $end
$var parameter 32 / DISP_COLUMNS $end
$var parameter 32 0 DISP_ROWS $end
$var parameter 64 1 FB_HEIGHT $end
$var parameter 64 2 FB_WIDTH $end
$var parameter 32 3 STATE_DELAY $end
$var parameter 32 4 STATE_IDLE $end
$var parameter 32 5 STATE_INITIALIZED $end
$var parameter 32 6 STATE_UPDATE_DISPLAY $end
$var reg 1 7 r_Enable $end
$var reg 2 8 r_State [1:0] $end
$var reg 2 9 r_State_Next [1:0] $end
$var integer 32 : delay_clocks [31:0] $end
$var integer 32 ; num_pixels_updated [31:0] $end
$scope begin STREAM_GEN[0] $end
$var parameter 2 < s $end
$scope begin ROW_GEN[0] $end
$var parameter 2 = r $end
$scope begin COL_GEN[0] $end
$var parameter 2 > c $end
$upscope $end
$upscope $end
$upscope $end
$scope begin STREAM_GEN[1] $end
$var parameter 2 ? s $end
$scope begin ROW_GEN[0] $end
$var parameter 2 @ r $end
$scope begin COL_GEN[0] $end
$var parameter 2 A c $end
$upscope $end
$upscope $end
$upscope $end
$scope begin STREAM_GEN[2] $end
$var parameter 3 B s $end
$scope begin ROW_GEN[0] $end
$var parameter 2 C r $end
$scope begin COL_GEN[0] $end
$var parameter 2 D c $end
$upscope $end
$upscope $end
$upscope $end
$scope begin STREAM_GEN[3] $end
$var parameter 3 E s $end
$scope begin ROW_GEN[0] $end
$var parameter 2 F r $end
$scope begin COL_GEN[0] $end
$var parameter 2 G c $end
$upscope $end
$upscope $end
$upscope $end
$scope begin STREAM_GEN[4] $end
$var parameter 4 H s $end
$scope begin ROW_GEN[0] $end
$var parameter 2 I r $end
$scope begin COL_GEN[0] $end
$var parameter 2 J c $end
$upscope $end
$upscope $end
$upscope $end
$scope begin STREAM_GEN[5] $end
$var parameter 4 K s $end
$scope begin ROW_GEN[0] $end
$var parameter 2 L r $end
$scope begin COL_GEN[0] $end
$var parameter 2 M c $end
$upscope $end
$upscope $end
$upscope $end
$scope begin STREAM_GEN[6] $end
$var parameter 4 N s $end
$scope begin ROW_GEN[0] $end
$var parameter 2 O r $end
$scope begin COL_GEN[0] $end
$var parameter 2 P c $end
$upscope $end
$upscope $end
$upscope $end
$scope begin STREAM_GEN[7] $end
$var parameter 4 Q s $end
$scope begin ROW_GEN[0] $end
$var parameter 2 R r $end
$scope begin COL_GEN[0] $end
$var parameter 2 S c $end
$upscope $end
$upscope $end
$upscope $end
$scope module rand_0 $end
$var wire 1 % i_Clk $end
$var wire 1 7 i_Enable $end
$var wire 1 * o_Random_Done $end
$var wire 9 T o_Random_Data [8:0] $end
$var parameter 34 U NUM_BITS $end
$var parameter 1 V STATE_IDLE $end
$var parameter 1 W STATE_SEED_LOADED $end
$var reg 1 X r_Seed_DV $end
$var reg 9 Y r_Seed_Data [8:0] $end
$var reg 1 Z r_State $end
$scope module lfsr_0 $end
$var wire 1 % i_Clk $end
$var wire 1 7 i_Enable $end
$var wire 1 X i_Seed_DV $end
$var wire 9 [ i_Seed_Data [8:0] $end
$var wire 9 \ o_LFSR_Data [8:0] $end
$var wire 1 * o_LFSR_Done $end
$var parameter 34 ] NUM_BITS $end
$var reg 9 ^ r_LFSR [9:1] $end
$var reg 1 _ r_XNOR $end
$upscope $end
$upscope $end
$scope task clear_fb $end
$var integer 32 ` i [31:0] $end
$var integer 32 a j [31:0] $end
$upscope $end
$upscope $end
$upscope $end
$enddefinitions $end
$comment Show the parameter values. $end
$dumpall
b1001 ]
1W
0V
b1001 U
b0 S
b0 R
b111 Q
b0 P
b0 O
b110 N
b0 M
b0 L
b101 K
b0 J
b0 I
b100 H
b0 G
b0 F
b11 E
b0 D
b0 C
b10 B
b0 A
b0 @
b1 ?
b0 >
b0 =
b0 <
b10 6
b1 5
b0 4
b11 3
b1000 2
b1000 1
b1 0
b1 /
b0 .
b1000 -
b1 $
b1 #
b1000 "
$end
#0
$dumpvars
bx a
bx `
0_
b0 ^
b0 \
b100000000 [
0Z
b100000000 Y
xX
b0 T
b0 ;
b0 :
b1 9
b0 8
07
b1xxxxxxxx00000010xxxxxxxx00000011xxxxxxxx00000100xxxxxxxx00000101xxxxxxxx00000110xxxxxxxx00000111xxxxxxxx00001000xxxxxxxx ,
b0 +
0*
b0 )
b0 (
b10010001101000101011001111000 '
0&
0%
b1xxxxxxxx00000010xxxxxxxx00000011xxxxxxxx00000100xxxxxxxx00000101xxxxxxxx00000110xxxxxxxx00000111xxxxxxxx00001000xxxxxxxx !
$end
#1000
1%
#2000
b10 9
b1 8
0%
#3000
1%
#4000
b1000000000000001000000000000000110000000000000100000000000000010100000000000001100000000000000111000000000000100000000000 !
b1000000000000001000000000000000110000000000000100000000000000010100000000000001100000000000000111000000000000100000000000 ,
b10 8
17
b1000 a
b1000 `
0%
#5000
1%
#6000
1Z
1X
b1 ;
b1000000010000001000000000000000110000000000000100000000000000010100000000000001100000000000000111000000000000100000000000 !
b1000000010000001000000000000000110000000000000100000000000000010100000000000001100000000000000111000000000000100000000000 ,
0%
#7000
1*
b100000000 +
b100000000 T
b100000000 \
b100000000 ^
1%
#8000
0X
b10 ;
b1000000000000001000000000000000110000000000000100000000000000010100000000000001100000000000000111000000000000100000000000 !
b1000000000000001000000000000000110000000000000100000000000000010100000000000001100000000000000111000000000000100000000000 ,
0%
#9000
1_
0*
b0 +
b0 T
b0 \
b0 ^
1%
#10000
b11 ;
b1000000010000001000000000000000110000000000000100000000000000010100000000000001100000000000000111000000000000100000000000 !
b1000000010000001000000000000000110000000000000100000000000000010100000000000001100000000000000111000000000000100000000000 ,
0%
#11000
b1 )
b1 +
b1 T
b1 \
b1 ^
1%
#12000
b100 ;
b1000000110000001000000000000000110000000000000100000000000000010100000000000001100000000000000111000000000000100000000000 !
b1000000110000001000000000000000110000000000000100000000000000010100000000000001100000000000000111000000000000100000000000 ,
0%
#13000
b11 )
b11 +
b11 T
b11 \
b11 ^
1%
#14000
b101 ;
b1000010110000001000000000000000110000000000000100000000000000010100000000000001100000000000000111000000000000100000000000 !
b1000010110000001000000000000000110000000000000100000000000000010100000000000001100000000000000111000000000000100000000000 ,
0%
#15000
b111 )
b111 +
b111 T
b111 \
b111 ^
1%
#16000
b110 ;
b1100010110000001000000000000000110000000000000100000000000000010100000000000001100000000000000111000000000000100000000000 !
b1100010110000001000000000000000110000000000000100000000000000010100000000000001100000000000000111000000000000100000000000 ,
0%
#17000
b1 (
b1111 +
b1111 T
b1111 \
b1111 ^
1%
#18000
b111 ;
b1100010110000001010000000000000110000000000000100000000000000010100000000000001100000000000000111000000000000100000000000 !
b1100010110000001010000000000000110000000000000100000000000000010100000000000001100000000000000111000000000000100000000000 ,
0%
#19000
0_
b11 (
b11111 +
b11111 T
b11111 \
b11111 ^
1%
#20000
b1000 ;
b1100010110000001010000000000000110000000000000100100000000000010100000000000001100000000000000111000000000000100000000000 !
b1100010110000001010000000000000110000000000000100100000000000010100000000000001100000000000000111000000000000100000000000 ,
0%
#21000
b110 )
b111 (
b111110 +
b111110 T
b111110 \
b111110 ^
1%
#22000
b1001 ;
b1100010110000001010000000000000110000000000000100100000000000010100000000000001100000000000000111000000000000100001000000 !
b1100010110000001010000000000000110000000000000100100000000000010100000000000001100000000000000111000000000000100001000000 ,
0%
#23000
b100 )
b1111100 +
b1111100 T
b1111100 \
b1111100 ^
1%
#24000
b1010 ;
b1100010110000001010000000000000110000000000000100100000000000010100000000000001100000000000000111000000000000100001010000 !
b1100010110000001010000000000000110000000000000100100000000000010100000000000001100000000000000111000000000000100001010000 ,
0%
#25000
b0 )
b11111000 +
b11111000 T
b11111000 \
b11111000 ^
1%
#26000
b1011 ;
b1100010110000001010000000000000110000000000000100100000000000010100000000000001100000000000000111000000000000100001010001 !
b1100010110000001010000000000000110000000000000100100000000000010100000000000001100000000000000111000000000000100001010001 ,
0%
#27000
1_
b110 (
b111110000 +
b111110000 T
b111110000 \
b111110000 ^
1%
#28000
b1100 ;
b1100010110000001010000000000000110000000000000100100000000000010100000000000001100000000000000111000000010000100001010001 !
b1100010110000001010000000000000110000000000000100100000000000010100000000000001100000000000000111000000010000100001010001 ,
0%
#29000
0_
b1 )
b100 (
b111100001 +
b111100001 T
b111100001 \
b111100001 ^
1%
#30000
b1101 ;
b1100010110000001010000000000000110000000000000100100000000000010100000010000001100000000000000111000000010000100001010001 !
b1100010110000001010000000000000110000000000000100100000000000010100000010000001100000000000000111000000010000100001010001 ,
0%
#31000
b10 )
b0 (
b111000010 +
b111000010 T
b111000010 \
b111000010 ^
1%
#32000
b1110 ;
b1100011110000001010000000000000110000000000000100100000000000010100000010000001100000000000000111000000010000100001010001 !
b1100011110000001010000000000000110000000000000100100000000000010100000010000001100000000000000111000000010000100001010001 ,
0%
#33000
b100 )
b110000100 +
b110000100 T
b110000100 \
b110000100 ^
1%
#34000
b1111 ;
b1100111110000001010000000000000110000000000000100100000000000010100000010000001100000000000000111000000010000100001010001 !
b1100111110000001010000000000000110000000000000100100000000000010100000010000001100000000000000111000000010000100001010001 ,
0%
#35000
b0 )
b1 (
b100001000 +
b100001000 T
b100001000 \
b100001000 ^
1%
#36000
b10000 ;
b1100111110000001010000001000000110000000000000100100000000000010100000010000001100000000000000111000000010000100001010001 !
b1100111110000001010000001000000110000000000000100100000000000010100000010000001100000000000000111000000010000100001010001 ,
0%
#37000
b10 (
b10000 +
b10000 T
b10000 \
b10000 ^
1%
#38000
b10001 ;
b1100111110000001010000001000000110000000100000100100000000000010100000010000001100000000000000111000000010000100001010001 !
b1100111110000001010000001000000110000000100000100100000000000010100000010000001100000000000000111000000010000100001010001 ,
0%
#39000
1_
b100 (
b100000 +
b100000 T
b100000 \
b100000 ^
1%
#40000
b10010 ;
b1100111110000001010000001000000110000000100000100100000000000010100000011000001100000000000000111000000010000100001010001 !
b1100111110000001010000001000000110000000100000100100000000000010100000011000001100000000000000111000000010000100001010001 ,
0%
#41000
b1 )
b0 (
b1000001 +
b1000001 T
b1000001 \
b1000001 ^
1%
#42000
b10011 ;
b1100111010000001010000001000000110000000100000100100000000000010100000011000001100000000000000111000000010000100001010001 !
b1100111010000001010000001000000110000000100000100100000000000010100000011000001100000000000000111000000010000100001010001 ,
0%
#43000
b11 )
b10000011 +
b10000011 T
b10000011 \
b10000011 ^
1%
#44000
b10100 ;
b1100101010000001010000001000000110000000100000100100000000000010100000011000001100000000000000111000000010000100001010001 !
b1100101010000001010000001000000110000000100000100100000000000010100000011000001100000000000000111000000010000100001010001 ,
0%
#45000
0_
b111 )
b100000111 +
b100000111 T
b100000111 \
b100000111 ^
1%
#46000
b10101 ;
b1000101010000001010000001000000110000000100000100100000000000010100000011000001100000000000000111000000010000100001010001 !
b1000101010000001010000001000000110000000100000100100000000000010100000011000001100000000000000111000000010000100001010001 ,
0%
#47000
1_
b110 )
b1 (
b1110 +
b1110 T
b1110 \
b1110 ^
1%
#48000
b10110 ;
b1000101010000001011000001000000110000000100000100100000000000010100000011000001100000000000000111000000010000100001010001 !
b1000101010000001011000001000000110000000100000100100000000000010100000011000001100000000000000111000000010000100001010001 ,
0%
#49000
0_
b101 )
b11 (
b11101 +
b11101 T
b11101 \
b11101 ^
1%
#50000
b10111 ;
b1000101010000001011000001000000110000000100000100101000000000010100000011000001100000000000000111000000010000100001010001 !
b1000101010000001011000001000000110000000100000100101000000000010100000011000001100000000000000111000000010000100001010001 ,
0%
#51000
b10 )
b111 (
b111010 +
b111010 T
b111010 \
b111010 ^
1%
#52000
b11000 ;
b1000101010000001011000001000000110000000100000100101000000000010100000011000001100000000000000111000000010000100001010101 !
b1000101010000001011000001000000110000000100000100101000000000010100000011000001100000000000000111000000010000100001010101 ,
0%
#53000
b100 )
b110 (
b1110100 +
b1110100 T
b1110100 \
b1110100 ^
1%
#54000
b11001 ;
b1000101010000001011000001000000110000000100000100101000000000010100000011000001100000000000000111000100010000100001010101 !
b1000101010000001011000001000000110000000100000100101000000000010100000011000001100000000000000111000100010000100001010101 ,
0%
#55000
1_
b0 )
b101 (
b11101000 +
b11101000 T
b11101000 \
b11101000 ^
1%
#56000
b11010 ;
b1000101010000001011000001000000110000000100000100101000000000010100000011000001100000000100000111000100010000100001010101 !
b1000101010000001011000001000000110000000100000100101000000000010100000011000001100000000100000111000100010000100001010101 ,
0%
#57000
b1 )
b10 (
b111010001 +
b111010001 T
b111010001 \
b111010001 ^
1%
#58000
b11011 ;
b1000101010000001011000001000000110000001100000100101000000000010100000011000001100000000100000111000100010000100001010101 !
b1000101010000001011000001000000110000001100000100101000000000010100000011000001100000000100000111000100010000100001010101 ,
0%
#59000
0_
b11 )
b100 (
b110100011 +
b110100011 T
b110100011 \
b110100011 ^
1%
#60000
b11100 ;
b1000101010000001011000001000000110000001100000100101000000000010100001011000001100000000100000111000100010000100001010101 !
b1000101010000001011000001000000110000001100000100101000000000010100001011000001100000000100000111000100010000100001010101 ,
0%
#61000
b110 )
b0 (
b101000110 +
b101000110 T
b101000110 \
b101000110 ^
1%
#62000
b11101 ;
b1010101010000001011000001000000110000001100000100101000000000010100001011000001100000000100000111000100010000100001010101 !
b1010101010000001011000001000000110000001100000100101000000000010100001011000001100000000100000111000100010000100001010101 ,
0%
#63000
1_
b100 )
b1 (
b10001100 +
b10001100 T
b10001100 \
b10001100 ^
1%
#64000
b11110 ;
b1010101010000001011010001000000110000001100000100101000000000010100001011000001100000000100000111000100010000100001010101 !
b1010101010000001011010001000000110000001100000100101000000000010100001011000001100000000100000111000100010000100001010101 ,
0%
#65000
b1 )
b11 (
b100011001 +
b100011001 T
b100011001 \
b100011001 ^
1%
#66000
b11111 ;
b1010101010000001011010001000000110000001100000100101000100000010100001011000001100000000100000111000100010000100001010101 !
b1010101010000001011010001000000110000001100000100101000100000010100001011000001100000000100000111000100010000100001010101 ,
0%
#67000
0_
b11 )
b110 (
b110011 +
b110011 T
b110011 \
b110011 ^
1%
#68000
b100000 ;
b1010101010000001011010001000000110000001100000100101000100000010100001011000001100000000100000111000110010000100001010101 !
b1010101010000001011010001000000110000001100000100101000100000010100001011000001100000000100000111000110010000100001010101 ,
0%
#69000
1_
b110 )
b100 (
b1100110 +
b1100110 T
b1100110 \
b1100110 ^
1%
#70000
b100001 ;
b1010101010000001011010001000000110000001100000100101000100000010101001011000001100000000100000111000110010000100001010101 !
b1010101010000001011010001000000110000001100000100101000100000010101001011000001100000000100000111000110010000100001010101 ,
0%
#71000
b101 )
b1 (
b11001101 +
b11001101 T
b11001101 \
b11001101 ^
1%
#72000
b100010 ;
b1010101010000001011110001000000110000001100000100101000100000010101001011000001100000000100000111000110010000100001010101 !
b1010101010000001011110001000000110000001100000100101000100000010101001011000001100000000100000111000110010000100001010101 ,
0%
#73000
b11 )
b11 (
b110011011 +
b110011011 T
b110011011 \
b110011011 ^
1%
#74000
b100011 ;
b1010101010000001011110001000000110000001100000100101010100000010101001011000001100000000100000111000110010000100001010101 !
b1010101010000001011110001000000110000001100000100101010100000010101001011000001100000000100000111000110010000100001010101 ,
0%
#75000
b111 )
b110 (
b100110111 +
b100110111 T
b100110111 \
b100110111 ^
1%
#76000
b100100 ;
b1010101010000001011110001000000110000001100000100101010100000010101001011000001100000000100000111100110010000100001010101 !
b1010101010000001011110001000000110000001100000100101010100000010101001011000001100000000100000111100110010000100001010101 ,
0%
#77000
b101 (
b1101111 +
b1101111 T
b1101111 \
b1101111 ^
1%
#78000
b100101 ;
b1010101010000001011110001000000110000001100000100101010100000010101001011000001101000000100000111100110010000100001010101 !
b1010101010000001011110001000000110000001100000100101010100000010101001011000001101000000100000111100110010000100001010101 ,
0%
#79000
0_
b11 (
b11011111 +
b11011111 T
b11011111 \
b11011111 ^
1%
#80000
b100110 ;
b1010101010000001011110001000000110000001100000100001010100000010101001011000001101000000100000111100110010000100001010101 !
b1010101010000001011110001000000110000001100000100001010100000010101001011000001101000000100000111100110010000100001010101 ,
0%
#81000
1_
b110 )
b111 (
b110111110 +
b110111110 T
b110111110 \
b110111110 ^
1%
#82000
b100111 ;
b1010101010000001011110001000000110000001100000100001010100000010101001011000001101000000100000111100110010000100000010101 !
b1010101010000001011110001000000110000001100000100001010100000010101001011000001101000000100000111100110010000100000010101 ,
0%
#83000
b101 )
b101111101 +
b101111101 T
b101111101 \
b101111101 ^
1%
#84000
b101000 ;
b1010101010000001011110001000000110000001100000100001010100000010101001011000001101000000100000111100110010000100000110101 !
b1010101010000001011110001000000110000001100000100001010100000010101001011000001101000000100000111100110010000100000110101 ,
0%
#85000
0_
b11 )
b11111011 +
b11111011 T
b11111011 \
b11111011 ^
1%
#86000
b101001 ;
b1010101010000001011110001000000110000001100000100001010100000010101001011000001101000000100000111100110010000100000111101 !
b1010101010000001011110001000000110000001100000100001010100000010101001011000001101000000100000111100110010000100000111101 ,
0%
#87000
1_
b110 )
b110 (
b111110110 +
b111110110 T
b111110110 \
b111110110 ^
1%
#88000
b101010 ;
b1010101010000001011110001000000110000001100000100001010100000010101001011000001101000000100000111110110010000100000111101 !
b1010101010000001011110001000000110000001100000100001010100000010101001011000001101000000100000111110110010000100000111101 ,
0%
#89000
0_
b101 )
b101 (
b111101101 +
b111101101 T
b111101101 \
b111101101 ^
1%
#90000
b101011 ;
b1010101010000001011110001000000110000001100000100001010100000010101001011000001101010000100000111110110010000100000111101 !
b1010101010000001011110001000000110000001100000100001010100000010101001011000001101010000100000111110110010000100000111101 ,
0%
#91000
1_
b10 )
b11 (
b111011010 +
b111011010 T
b111011010 \
b111011010 ^
1%
#92000
b101100 ;
b1010101010000001011110001000000110000001100000100001011100000010101001011000001101010000100000111110110010000100000111101 !
b1010101010000001011110001000000110000001100000100001011100000010101001011000001101010000100000111110110010000100000111101 ,
0%
#93000
b101 )
b110 (
b110110101 +
b110110101 T
b110110101 \
b110110101 ^
1%
#94000
b101101 ;
b1010101010000001011110001000000110000001100000100001011100000010101001011000001101010000100000111111110010000100000111101 !
b1010101010000001011110001000000110000001100000100001011100000010101001011000001101010000100000111111110010000100000111101 ,
0%
#95000
0_
b11 )
b101 (
b101101011 +
b101101011 T
b101101011 \
b101101011 ^
1%
#96000
b101110 ;
b1010101010000001011110001000000110000001100000100001011100000010101001011000001101010100100000111111110010000100000111101 !
b1010101010000001011110001000000110000001100000100001011100000010101001011000001101010100100000111111110010000100000111101 ,
0%
#97000
b110 )
b10 (
b11010110 +
b11010110 T
b11010110 \
b11010110 ^
1%
#98000
b101111 ;
b1010101010000001011110001000000110100001100000100001011100000010101001011000001101010100100000111111110010000100000111101 !
b1010101010000001011110001000000110100001100000100001011100000010101001011000001101010100100000111111110010000100000111101 ,
0%
#99000
b100 )
b101 (
b110101100 +
b110101100 T
b110101100 \
b110101100 ^
1%
#100000
b110000 ;
b1010101010000001011110001000000110100001100000100001011100000010101001011000001101011100100000111111110010000100000111101 !
b1010101010000001011110001000000110100001100000100001011100000010101001011000001101011100100000111111110010000100000111101 ,
0%
#101000
1_
b0 )
b11 (
b101011000 +
b101011000 T
b101011000 \
b101011000 ^
1%
#102000
b110001 ;
b1010101010000001011110001000000110100001100000100001011110000010101001011000001101011100100000111111110010000100000111101 !
b1010101010000001011110001000000110100001100000100001011110000010101001011000001101011100100000111111110010000100000111101 ,
0%
#103000
0_
b1 )
b110 (
b10110001 +
b10110001 T
b10110001 \
b10110001 ^
1%
#104000
b110010 ;
b1010101010000001011110001000000110100001100000100001011110000010101001011000001101011100100000111111110110000100000111101 !
b1010101010000001011110001000000110100001100000100001011110000010101001011000001101011100100000111111110110000100000111101 ,
0%
#105000
b10 )
b100 (
b101100010 +
b101100010 T
b101100010 \
b101100010 ^
1%
#106000
b110011 ;
b1010101010000001011110001000000110100001100000100001011110000010101001111000001101011100100000111111110110000100000111101 !
b1010101010000001011110001000000110100001100000100001011110000010101001111000001101011100100000111111110110000100000111101 ,
0%
#107000
1_
b100 )
b0 (
b11000100 +
b11000100 T
b11000100 \
b11000100 ^
1%
#108000
b110100 ;
b1010001010000001011110001000000110100001100000100001011110000010101001111000001101011100100000111111110110000100000111101 !
b1010001010000001011110001000000110100001100000100001011110000010101001111000001101011100100000111111110110000100000111101 ,
0%
#109000
0_
b1 )
b1 (
b110001001 +
b110001001 T
b110001001 \
b110001001 ^
1%
#110000
b110101 ;
b1010001010000001011110011000000110100001100000100001011110000010101001111000001101011100100000111111110110000100000111101 !
b1010001010000001011110011000000110100001100000100001011110000010101001111000001101011100100000111111110110000100000111101 ,
0%
#111000
1_
b10 )
b10 (
b100010010 +
b100010010 T
b100010010 \
b100010010 ^
1%
#112000
b110110 ;
b1010001010000001011110011000000110100011100000100001011110000010101001111000001101011100100000111111110110000100000111101 !
b1010001010000001011110011000000110100011100000100001011110000010101001111000001101011100100000111111110110000100000111101 ,
0%
#113000
b101 )
b100 (
b100101 +
b100101 T
b100101 \
b100101 ^
1%
#114000
b110111 ;
b1010001010000001011110011000000110100011100000100001011110000010101101111000001101011100100000111111110110000100000111101 !
b1010001010000001011110011000000110100011100000100001011110000010101101111000001101011100100000111111110110000100000111101 ,
0%
#115000
b11 )
b1 (
b1001011 +
b1001011 T
b1001011 \
b1001011 ^
1%
#116000
b111000 ;
b1010001010000001011111011000000110100011100000100001011110000010101101111000001101011100100000111111110110000100000111101 !
b1010001010000001011111011000000110100011100000100001011110000010101101111000001101011100100000111111110110000100000111101 ,
0%
#117000
0_
b111 )
b10 (
b10010111 +
b10010111 T
b10010111 \
b10010111 ^
1%
#118000
b111001 ;
b1010001010000001011111011000000111100011100000100001011110000010101101111000001101011100100000111111110110000100000111101 !
b1010001010000001011111011000000111100011100000100001011110000010101101111000001101011100100000111111110110000100000111101 ,
0%
#119000
b110 )
b101 (
b100101110 +
b100101110 T
b100101110 \
b100101110 ^
1%
#120000
b111010 ;
b1010001010000001011111011000000111100011100000100001011110000010101101111000001101111100100000111111110110000100000111101 !
b1010001010000001011111011000000111100011100000100001011110000010101101111000001101111100100000111111110110000100000111101 ,
0%
#121000
b100 )
b11 (
b1011100 +
b1011100 T
b1011100 \
b1011100 ^
1%
#122000
b111011 ;
b1010001010000001011111011000000111100011100000100001111110000010101101111000001101111100100000111111110110000100000111101 !
b1010001010000001011111011000000111100011100000100001111110000010101101111000001101111100100000111111110110000100000111101 ,
0%
#123000
b0 )
b111 (
b10111000 +
b10111000 T
b10111000 \
b10111000 ^
1%
#124000
b111100 ;
b1010001010000001011111011000000111100011100000100001111110000010101101111000001101111100100000111111110110000100000111100 !
b1010001010000001011111011000000111100011100000100001111110000010101101111000001101111100100000111111110110000100000111100 ,
0%
#125000
1_
b110 (
b101110000 +
b101110000 T
b101110000 \
b101110000 ^
1%
#126000
b111101 ;
b1010001010000001011111011000000111100011100000100001111110000010101101111000001101111100100000111111110100000100000111100 !
b1010001010000001011111011000000111100011100000100001111110000010101101111000001101111100100000111111110100000100000111100 ,
0%
#127000
b1 )
b100 (
b11100001 +
b11100001 T
b11100001 \
b11100001 ^
1%
#128000
b111110 ;
b1010001010000001011111011000000111100011100000100001111110000010101101101000001101111100100000111111110100000100000111100 !
b1010001010000001011111011000000111100011100000100001111110000010101101101000001101111100100000111111110100000100000111100 ,
0%
#129000
0_
b11 )
b0 (
b111000011 +
b111000011 T
b111000011 \
b111000011 ^
1%
#130000
b111111 ;
b1010011010000001011111011000000111100011100000100001111110000010101101101000001101111100100000111111110100000100000111100 !
b1010011010000001011111011000000111100011100000100001111110000010101101101000001101111100100000111111110100000100000111100 ,
0%
#131000
b110 )
b110000110 +
b110000110 T
b110000110 \
b110000110 ^
1%
#132000
b11 9
b1000000 ;
b1000011010000001011111011000000111100011100000100001111110000010101101101000001101111100100000111111110100000100000111100 !
b1000011010000001011111011000000111100011100000100001111110000010101101101000001101111100100000111111110100000100000111100 ,
0%
#133000
b100 )
b1 (
b100001100 +
b100001100 T
b100001100 \
b100001100 ^
1%
#134000
b10 9
b11 8
07
b0 ;
0%
#135000
1%
#136000
17
b10 8
0%
#137000
b0 )
b11 (
b11000 +
b11000 T
b11000 \
b11000 ^
1%
#138000
b1 ;
b1000011010000001011111011000000111100011100000100001111100000010101101101000001101111100100000111111110100000100000111100 !
b1000011010000001011111011000000111100011100000100001111100000010101101101000001101111100100000111111110100000100000111100 ,
0%
#139000
b110 (
b110000 +
b110000 T
b110000 \
b110000 ^
1%
#140000
b10 ;
b1000011010000001011111011000000111100011100000100001111100000010101101101000001101111100100000111111110110000100000111100 !
b1000011010000001011111011000000111100011100000100001111100000010101101101000001101111100100000111111110110000100000111100 ,
0%
#141000
1_
b100 (
b1100000 +
b1100000 T
b1100000 \
b1100000 ^
1%
#142000
b11 ;
b1000011010000001011111011000000111100011100000100001111100000010101101100000001101111100100000111111110110000100000111100 !
b1000011010000001011111011000000111100011100000100001111100000010101101100000001101111100100000111111110110000100000111100 ,
0%
#143000
b1 )
b0 (
b11000001 +
b11000001 T
b11000001 \
b11000001 ^
1%
#144000
b100 ;
b1000011110000001011111011000000111100011100000100001111100000010101101100000001101111100100000111111110110000100000111100 !
b1000011110000001011111011000000111100011100000100001111100000010101101100000001101111100100000111111110110000100000111100 ,
0%
#145000
0_
b11 )
b110000011 +
b110000011 T
b110000011 \
b110000011 ^
1%
#146000
b101 ;
b1000001110000001011111011000000111100011100000100001111100000010101101100000001101111100100000111111110110000100000111100 !
b1000001110000001011111011000000111100011100000100001111100000010101101100000001101111100100000111111110110000100000111100 ,
0%
#147000
b110 )
b100000110 +
b100000110 T
b100000110 \
b100000110 ^
1%
#148000
b110 ;
b1010001110000001011111011000000111100011100000100001111100000010101101100000001101111100100000111111110110000100000111100 !
b1010001110000001011111011000000111100011100000100001111100000010101101100000001101111100100000111111110110000100000111100 ,
0%
#149000
1_
b100 )
b1 (
b1100 +
b1100 T
b1100 \
b1100 ^
1%
#150000
b111 ;
b1010001110000001011101011000000111100011100000100001111100000010101101100000001101111100100000111111110110000100000111100 !
b1010001110000001011101011000000111100011100000100001111100000010101101100000001101111100100000111111110110000100000111100 ,
0%
#151000
0_
b1 )
b11 (
b11001 +
b11001 T
b11001 \
b11001 ^
1%
#152000
b1000 ;
b1010001110000001011101011000000111100011100000100001111000000010101101100000001101111100100000111111110110000100000111100 !
b1010001110000001011101011000000111100011100000100001111000000010101101100000001101111100100000111111110110000100000111100 ,
0%
#153000
b10 )
b110 (
b110010 +
b110010 T
b110010 \
b110010 ^
1%
#154000
b1001 ;
b1010001110000001011101011000000111100011100000100001111000000010101101100000001101111100100000111111111110000100000111100 !
b1010001110000001011101011000000111100011100000100001111000000010101101100000001101111100100000111111111110000100000111100 ,
0%
#155000
1_
b100 )
b100 (
b1100100 +
b1100100 T
b1100100 \
b1100100 ^
1%
#156000
b1010 ;
b1010001110000001011101011000000111100011100000100001111000000010101111100000001101111100100000111111111110000100000111100 !
b1010001110000001011101011000000111100011100000100001111000000010101111100000001101111100100000111111111110000100000111100 ,
0%
#157000
b1 )
b1 (
b11001001 +
b11001001 T
b11001001 \
b11001001 ^
1%
#158000
b1011 ;
b1010001110000001011101001000000111100011100000100001111000000010101111100000001101111100100000111111111110000100000111100 !
b1010001110000001011101001000000111100011100000100001111000000010101111100000001101111100100000111111111110000100000111100 ,
0%
#159000
b11 )
b10 (
b110010011 +
b110010011 T
b110010011 \
b110010011 ^
1%
#160000
b1100 ;
b1010001110000001011101001000000111100111100000100001111000000010101111100000001101111100100000111111111110000100000111100 !
b1010001110000001011101001000000111100111100000100001111000000010101111100000001101111100100000111111111110000100000111100 ,
0%
#161000
0_
b111 )
b100 (
b100100111 +
b100100111 T
b100100111 \
b100100111 ^
1%
#162000
b1101 ;
b1010001110000001011101001000000111100111100000100001111000000010111111100000001101111100100000111111111110000100000111100 !
b1010001110000001011101001000000111100111100000100001111000000010111111100000001101111100100000111111111110000100000111100 ,
0%
#163000
1_
b110 )
b1 (
b1001110 +
b1001110 T
b1001110 \
b1001110 ^
1%
#164000
b1110 ;
b1010001110000001010101001000000111100111100000100001111000000010111111100000001101111100100000111111111110000100000111100 !
b1010001110000001010101001000000111100111100000100001111000000010111111100000001101111100100000111111111110000100000111100 ,
0%
#165000
0_
b101 )
b11 (
b10011101 +
b10011101 T
b10011101 \
b10011101 ^
1%
#166000
b1111 ;
b1010001110000001010101001000000111100111100000100000111000000010111111100000001101111100100000111111111110000100000111100 !
b1010001110000001010101001000000111100111100000100000111000000010111111100000001101111100100000111111111110000100000111100 ,
0%
#167000
1_
b10 )
b111 (
b100111010 +
b100111010 T
b100111010 \
b100111010 ^
1%
#168000
b10000 ;
b1010001110000001010101001000000111100111100000100000111000000010111111100000001101111100100000111111111110000100000111000 !
b1010001110000001010101001000000111100111100000100000111000000010111111100000001101111100100000111111111110000100000111000 ,
0%
#169000
0_
b101 )
b110 (
b1110101 +
b1110101 T
b1110101 \
b1110101 ^
1%
